Lab 13: Environmental Predictors of Biosynthetic Gene Cluster Potential in Soil Microbial Communities
…
Proxy 3: Hybrid proxy (taxonomy x genome size)

To integrate lineage-level expectations with genome-specific investment, we constructed a hybrid BGC proxy by scaling the taxonomy-based BGC estimates by genome size. This hybrid metric captures within-lineage variation in genome expansion and provides a more nuanced estimate of biosynthetic potential, reflecting both evolutionary history and genome architecture.

bgc_data <- bgc_data %>%
  mutate(
    bgc_hybrid_proxy = bgc_taxonomy_proxy * genome_size_mb
  )

bgc_data

# A tibble: 5,573 × 15
   site         site_ID subplot horizon phylum genus genome_size_bp completeness
   <chr>        <chr>   <chr>   <chr>   <chr>  <chr>          <dbl>        <dbl>
 1 Caribou-Pok… BONA    001     O       Acido… Sulf…        6486507         95.6
 2 Caribou-Pok… BONA    001     O       Actin… Pals…        3237739         94.7
 3 Caribou-Pok… BONA    001     O       Actin… Pals…        2712910         51.8
 4 Caribou-Pok… BONA    001     O       Acido… Sulf…        2720369         60.8
 5 Caribou-Pok… BONA    001     O       Acido… Pals…        3539081         81.5
 6 Caribou-Pok… BONA    001     O       Acido… Sulf…        3957793         88.1
 7 Caribou-Pok… BONA    001     O       Actin… Pals…        6054409         77.2
 8 Caribou-Pok… BONA    001     O       Pseud… Bog-…        2329620         66.3
 9 Caribou-Pok… BONA    001     O       Acido… Pals…        4300045         66.1
10 Caribou-Pok… BONA    001     O       Acido… QIAJ…        4009333         66.9
# ℹ 5,563 more rows
# ℹ 7 more variables: contamination <dbl>, soil_pH <dbl>, soil_pH_CaCl <dbl>,
#   bgc_taxonomy_proxy <dbl>, genome_size_mb <dbl>, bgc_genome_proxy <dbl>,
#   bgc_hybrid_proxy <dbl>
…
Because biosynthetic gene clusters are large, energetically costly genomic features, we used genome size as a proxy for overall metabolic and biosynthetic capacity. Genome completeness was included to account for variation in MAG assembly quality and the likelihood of capturing full metabolic pathways. These variables were standardized and combined into a continuous genome-property–based proxy representing the relative capacity of each MAG to encode complex secondary metabolism independent of taxonomic identity.

bgc_env <- bgc_data %>%
  group_by(site, subplot, horizon) %>%
  summarise(
    taxonomic_BGC = sum(bgc_taxonomy_proxy, na.rm = TRUE),
    genome_BGC = sum(bgc_genome_proxy, na.rm = TRUE),
    hybrid_BGC = sum(bgc_hybrid_proxy, na.rm = TRUE),
    mean_pH = mean(soil_pH, na.rm = TRUE),
    .groups = "drop"
  )

bgc_env

# A tibble: 255 × 7
   site              subplot horizon taxonomic_BGC genome_BGC hybrid_BGC mean_pH
   <chr>             <chr>   <chr>           <dbl>      <dbl>      <dbl>   <dbl>
 1 Caribou-Poker Cr… 001     O                  33     -1.28       116.     3.99
 2 Caribou-Poker Cr… 002     O                  34     12.4        122.     4.35
 3 Caribou-Poker Cr… 004     O                  41     22.8        146.     3.69
 4 Caribou-Poker Cr… 006     O                  33      6.88       108.     4.05
 5 Caribou-Poker Cr… 009     O                  19      7.51        68.1    4.08
 6 Caribou-Poker Cr… 013     O                  32    -14.9         99.0    3.97
 7 Caribou-Poker Cr… 070     O                  13      7.22        50.6    4.28
 8 Caribou-Poker Cr… 071     O                  21      1.25        71.4    4.20
 9 Caribou-Poker Cr… 080     O                  34     12.8        134.     3.95
10 Caribou-Poker Cr… 084     O                  14     -0.202       50.7    5.00
# ℹ 245 more rows
…
